{
  "context": {
    "38": {
      "text": "la route : tu arrives sur la route ,vois deux carrioles.",
      "choices": [
        {
          "text": "tu t’approches",
          "target": "43"
        },
        {
          "text": "tu les évites",
          "target": "44"
        }
      ]
    },
    "44": {
      "text": "tu les contournes et continues ta route vers ce qui se profil au loin comme le château dont le mourant t’as parlé. Loin+ route = trois jours de marche = -2hp.",
      "choices": [
        {
          "text": "proche château.",
          "target": "45"
        }
      ]
    },
    "43": {
      "text": "en t’approchant de la première carriole, ils sont 4, sont sympathiques, mais armé d’épées (pas soldat) et te demande ou tu vas. Ils vont au château aussi, il te propose de t’emmener.",
      "choices": [
        {
          "text": "accepter",
          "target": "46"
        },
        {
          "text": "refuser",
          "target": "44"
        }
      ]
    },
    "46": {
      "text": "tu montes dans la carrioles. Sympathique et souriant, ils t’offrent a manger et a boire. Et tu pars. Vous passez une journée de trajet agréable. Le soir tout le monde installe le camps. Mais pas deuxième carriole. Intrigué tu vas voir, ils y a des esclaves  enchaînes à l’intérieur. Tu retournes vers les hommes, marchands d’esclaves.",
      "choices": [
        {
          "text": "tu vas tout faire pour libérer les esclaves.",
          "target": "47"
        },
        {
          "text": "qu’importe les esclaves, tant que tu arrives au château pour récupérer l’artefact volé",
          "target": "48"
        }
      ]
    },
    "48": {
      "text": "un bon voyages malgré quelques gémissement des esclaves.",
      "choices": [
        {
          "text": "proche château",
          "target": "42"
        }
      ]
    },
    "47": {
      "text": "Mais comment faire ?",
      "choices": [
        {
          "text": "attaque un par un pour les éliminer plus facilement et libérer les esclaves après",
          "target": "49"
        },
        {
          "text": "discrètement pour ouvrir les chaînes des esclaves",
          "target": "50"
        }
      ]
    },
    "49": {
      "text": "combat marchands d’esclaves",
      "choices": [
        {
          "text": "réussi = libère esclaves",
          "target": "51"
        }
      ]
    },
    "50": {
      "text": "test agiAction discret+ crochetage",
      "choices": [
        {
          "text": "réussi",
          "target": "52"
        },
        {
          "text": "raté, tu n’y arrives pas",
          "target": "53"
        }
      ]
    },
    "52": {
      "text": "les esclaves se libèrent et marchands prévenu par bruit vient. Tu aides les esclaves à tuer les marchands",
      "choices": [
        {
          "text": "les marchands sont morts",
          "target": "60"
        }
      ]
    },
    "53": {
      "text": "tu n’arrives pas à crocheter",
      "choices": [
        {
          "text": "phyAction pour casser le cadenas",
          "target": "54"
        },
        {
          "text": "combattre les marchands",
          "target": "49"
        },
        {
          "text": "ne rien faire et t’excuser",
          "target": "56"
        }
      ]
    },
    "56": {
      "text": "navré. Retourne vers les marchands",
      "choices": [
        {
          "text": "un bon voyages malgré quelques gémissement des esclaves.",
          "target": "48"
        }
      ]
    },
    "54": {
      "text": "phyAction pour casser le cadenas",
      "choices": [
        {
          "text": "test réussi",
          "target": "57"
        },
        {
          "text": "alerter par le bruit, combat",
          "target": "58"
        }
      ]
    },
    "57": {
      "text": "cadenas cassé",
      "choices": [
        {
          "text": "esclaves libéré, combat marchands ensemble",
          "target": "52"
        }
      ]
    },
    "58": {
      "text": "Bruit, cadenas encore là. Marchands se rut sur toi.",
      "choices": [
        {
          "text": "combattre",
          "target": "59"
        },
        {
          "text": "fuir",
          "target": "61"
        }
      ]
    },
    "59": {
      "text": "combat, puis combat, puis combat, puis combat (il y a 4 marchands)",
      "choices": [
        {
          "text": "libère esclaves",
          "target": "51"
        }
      ]
    },
    "51": {
      "text": "ils te remercient et en pleure. Tu dis que c’est normal tout ça tout ça. Tuleur donne une carriole après avoir fouillé et prends la deuxième. Tu trouve une corde et une torche.",
      "choices": [
        {
          "text": "vers le chateau",
          "target": "62"
        }
      ]
    },
    "60": {
      "text": "les marchands sont mort. Tu prends ton temps et libere les esclaves",
      "choices": [
        {
          "text": "ils te remercient",
          "target": "51"
        }
      ]
    },
    "61": {
      "text": "Tu fuis le combat et la libération raté des esclaves. Tu cours dans la nuit. Tu te couche sommairement.(-1hp) Tu repars à pieds vers le château le lendemain matin.",
      "choices": [
        {
          "text": "proche du chateau",
          "target": "45"
        }
      ]
    },
    "45": {
      "text": "proche château à pied. ",
      "choices": [
        {
          "text": " entrer dans village",
          "target": "64"
        },
        {
          "text": "contourner et observer les alentours",
          "target": "67"
        }
      ]
    },
    "62": {
      "text": "proche château en carriole. Garde carriole pour entrer dans village.Grand château, plusieurs hommes armées, même tunique que ceux qui t’ont attaqué dans le village. Donc ils te recherchent.",
      "choices": [
        {
          "text": "tu rentres dans le village avec la carriole",
          "target": "63"
        },
        {
          "text": "tu rentres dans le village sans la carriole donc à pied",
          "target": "64"
        },
        {
          "text": "tu décides d’attendre, de contourner et observer les alentours",
          "target": "65"
        }
      ]
    },
    "64": {
      "text": "village à pied",
      "choices": [
        {
          "text": "Tu as le médaillon",
          "target": "66"
        },
        {
          "text": "Tu n’as pas le médaillon",
          "target": "67"
        }
      ]
    },
    "63": {
      "text": "village carriole",
      "choices": [
        {
          "text": "Tu as le médaillon",
          "target": "91"
        },
        {
          "text": "Tu n’as pas le médaillon",
          "target": "92"
        }
      ]
    },
    "66": {
      "text": "pied + médaillon : tu rentre facilement, mais regards bizarre. Village sympa mais soldats partout.  Tu ne traînes pas trop et va vers l’entrée du château. A l’entrée, deux gardes contrôlent.",
      "choice": [
        {
          "text": "passer en force",
          "target": "68"
        },
        {
          "text": "ruser social",
          "target": "69"
        },
        {
          "text": "ruser agi",
          "target": "70"
        }
      ]
    },
    "67": {
      "text": "pied+pas médaillon entré village : soldats ne te laisse pas entrer",
      "choice": [
        {
          "text": "attendre et observer les alentours",
          "target": "65"
        },
        {
          "text": "passer en force",
          "target": "82"
        },
        {
          "text": "ruser agi",
          "target": "83"
        }
      ]
    },
    "68": {
      "text ": "passer en force. OOO       Combat contre deux soldats.",
      "choice": [
        {
          "text": "combat réussi",
          "target": "71"
        }
      ]
    },
    "70": {
      "text": "ruser agi : agiAction pour passer derrière les gardes",
      "choices": [
        {
          "text": "test réussi",
          "target": "79"
        },
        {
          "text": "test raté",
          "target": "91"
        }
      ]
    },
    "71": {
      "text": "combat soldats entré réussi. 3 autre soldats attiré par le bruit viennent. OOO   Combat * 3",
      "choice": [
        {
          "text": "réussi= carnage",
          "target": "72"
        }
      ]
    },
    "72": {
      "text": "après 5 morts, les gens te fuit un peu. Tu rentres dans le château. Peu de gens dans la cour. Tu arrives vers le donjon.",
      "choices": [
        {
          "text": "Tu montes",
          "target": "73"
        }
      ]
    },
    "73": {
      "text": "Ton ascension se passe sans encombre. Tu arrives dans un couloir, avec plusieurs portes, toutes identiques et ouvertes, sauf une, plus grande, plus travaillé avec des décorations. Tu tends l’oreille mais aucun son n’en sors.",
      "choices": [
        {
          "text": "Tu ouvres la grande porte",
          "target": "74"
        },
        {
          "text": "Tu vas voir les autres pièces",
          "target": "75"
        }
      ]
    },
    "75": {
      "text": "Tu fouilles les pièces: OOO       test intAction.",
      "choices": [
        {
          "text": "test réussi",
          "target": "76"
        },
        {
          "text": "test raté",
          "target": "77"
        }
      ]
    },
    "76": {
      "text": "Tu trouves une potion de soin et une armure nv2. Mais rien d’autre, du coup tu vas vers la grande porte.",
      "choices": [
        {
          "text": "Tu ouvres la grande porte.",
          "target": "74"
        }
      ]
    },
    "77": {
      "text": "Tu trouves une potion. Mais rien d’autre du coup tu vas vers la grande porte.",
      "choices": [
        {
          "text": "tu ouvres la grande porte",
          "target": "74"
        }
      ]
    },
    "74": {
      "text": "Tu poses tes mains sur la porte et la pousse. Grande salle, éclairé par des torches, plusieurs fenêtres mais grands rideaux épais qui les cache et cache la lumière. Salle tapis rouge fatigué, trône simple. Personne dans la piece, mais du bruit derrière la voûte derrière le trône. Tu t’avances, et vois un homme, grand, yeux dans le vague, vider le contenu d’une tasse un peu transparente et faire tomber un ruby. Ce ruby tombe dans un coffre sous le regards hilare de l’homme. Il relève la tête. ‘Toi ! Tu es encore en vie…..ce trésor est à moi, tu ne l’auras pas, il est à moi ! C’est moi son propriétaire, pas toi, pas ton fichu ordre de chevalerie.’ beugle-t-il en postillonnant. ‘Vous vous en serviez pas, il vous servait à rien, il est à moi ! Je vais tout acheter avec ça, et je deviendrai le maître du pays. Non non non non...je deviendrai le maître du monde. Oui, oui ça c’est bien, le maître du monde. Donc je suis ton maître, et je t’ordonne de me laisser, laisse moi !’ Tu vois vite que cet homme a perdu l’esprit à cause de la tasse de crystal. Tu le prends un peu en pitié, mais tu t’approche un peu de lui pour lui reprendre l’artefact de ton ordre de chevalerie. A peine tu esquisse le mouvement pour le faire, il crie et te saute dessus. Il est en fait plus grand que toi et enragé. OOO    Combat contre boss.",
      "choices": [
        {
          "text": "Tu vaincs l’homme dérangé, mais pas totalement. Celui ci s’éloigne un peu de toi et sors vite deux potions qu’il boit d’une traite.",
          "target": "78"
        }
      ]
    },
    "100": {
      "text": "Bravo, fin du game !"
    },
    "78": {
      "text": "Il devient rouge violacé, il devient plus fort et semble avoir guéri. Il se tourne vers toi et te charge. 000      Combat numéro deux contre le boss, plus fort",
      "choices": [
        {
          "text": "Tu réussi à le vaincre pour de bon",
          "target": "100"
        }
      ]
    },
    "69": {
      "text": "ruser social : venir et discuter OOO   intAction",
      "choices": [
        {
          "text": "test réussi",
          "target": "79"
        },
        {
          "text": "test raté",
          "target": "80"
        }
      ]
    },
    "79": {
      "text": "Tu arrives bien ton action et à passer la porte. Tu croise plusieurs personnes qui ne te calcul pas, tu es passé sans encombre. Tu arrives vers le donjons",
      "choices": [
        {
          "text": "Tu montes",
          "target": "73"
        }
      ]
    },
    "80": {
      "text": "Tu as beau user de tout tes stratagèmes, de les endormir avec des excuses, mais rien. Pire, il te trouve trop suspect maintenant",
      "choices": [
        {
          "text": "tu fuis dans le village",
          "target": "81"
        },
        {
          "text": "tu décides de passer en force",
          "target": "68"
        }
      ]
    },
    "81": {
      "text": "tu fuis dans le village : ",
      "choices": [
        {
          "text": "tu décides de sortir du village pour observer les alentours",
          "target": "65"
        },
        {
          "text": "Tu décides de revenir vers l’entré du château et d’essayer de ruser agi",
          "target": "70"
        }
      ]
    },
    "82": {
      "text": "passe en force l’entré village. Trois soldat OOO   Combat",
      "choices": [
        {
          "text": "combat réussi",
          "target": "84"
        }
      ]
    },
    "83": {
      "text": "ruser agi entrée village: OOO    agiAction",
      "choices": [
        {
          "text": "test réussi, tu arrives à passer et va dans le village en furtif",
          "target": "87"
        },
        {
          "text": "Test raté, ils t’ont vu, tu décides de passer en force",
          "target": "82"
        }
      ]
    },
    "84": {
      "text": "combat à attiré attention.",
      "choices": [
        {
          "text": "tu continues rentrer dans le village en forçant le passage",
          "target": "85"
        },
        {
          "text": "tu décides de te cacher",
          "target": "86"
        }
      ]
    },
    "85": {
      "text": "Tu avances un peu en courant direction le château, trois gardes arrivent OOO     Combat",
      "choices": [
        {
          "text": "Tu poursuis les combat",
          "target": "89"
        }
      ]
    },
    "86": {
      "text": "cacher dans le village OOO     agiAction",
      "choices": [
        {
          "text": "caché réussi",
          "target": "87"
        },
        {
          "text": "caché raté",
          "target": "88"
        }
      ]
    },
    "87": {
      "text": "tu te cache bien, tu arpentes le village furtivement, puis tu arrives devant la porte du château",
      "choices": [
        {
          "text": "porte du château",
          "target": "66"
        }
      ]
    },
    "88": {
      "text": "on te voit, on te poursuit. Deux soldats OOO     Combat",
      "choices": [
        {
          "text": "tu réussi à les battre, mais on te voit toujours",
          "target": "89"
        }
      ]
    },
    "89": {
      "text": "au fil des combats, tu est arrivé proche de l’entrée du château, les deux gardes te vois OOO      Combat",
      "choices": [
        {
          "text": "combat réussi mais attire l’attention",
          "target": "71"
        }
      ]
    },
    "90": {
      "text": "les gardes de l’entrée du château t’ont vu",
      "choices": [
        {
          "text": "tu fuis dans le village",
          "target": "81"
        },
        {
          "text": "tu passes en force les deux gardes",
          "target": "68"
        }
      ]
    },
    "91": {
      "text": "Tu rentres sans soucis, on te voit, et on veut t’échanger ta carriole. Comme elle ne te servira plus, tu acceptes. Tu échanges contre une armure niv2 et une potion de soin.",
      "choices": [
        {
          "text": "Tu arrives devant l’entrée du chateau",
          "target": "66"
        }
      ]
    },
    "92": {
      "text": "Bon, tu ne peux pas passer. Mieux vaut contourner et observer les alentours alors.",
      "choices": [
        {
          "text": "alentours",
          "target": "65"
        }
      ]
    },
    "65": {
      "text": "tu te ballade en dehors du village.",
      "choices": [
        {
          "text": "Tu as une corde et veut monter au rempart",
          "target": "93"
        },
        {
          "text": "Tu passes par derrière et cherche une autre entré",
          "target": "94"
        }
      ]
    },
    "93": {
      "text": "grace à corde tu montes au rempart. Arrivé en haut, personne ne t’as vu, peu de garde. Tu descends et tu fais mine de rien. Tu arrives au pied du donjon",
      "choices": [
        {
          "text": "Tu montes",
          "target": "73"
        }
      ]
    },
    "94": {
      "text": "Tu trouve une entrée derrière le château, un peu abandonné. Tu y entre, et trouve un tunnel",
      "choices": [
        {
          "text": "Tu as une torche",
          "target": "95"
        },
        {
          "text": "Tu n’as pas de torche",
          "target": "96"
        }
      ]
    },
    "95": {
      "text": "Tu avances bien, et à la fin du tunnel, tu trouves une porte. Tu l’ouvre et tu es en bas d’un escalier.",
      "choices": [
        {
          "text": "tu montes",
          "target": "73"
        }
      ]
    },
    "96": {
      "text": "Le tunnel est trop sombre, tu te déplaces difficilement, et sans faire attention, tu glisses dans un ravin. Ton aventure est fini, TU ES MORTE",
      "choices": []
    }
  }
}